…
-Calculate the mean and median steps

-Chart the mean steps per time interval

-Identify that 835 is the five minute time interval with the highest average


```r
steps_per_day <- act %>% group_by(date) %>% dplyr::summarise(steps_per_day = sum(steps, na.rm = TRUE))

steps_per_day
```

```
## # A tibble: 61 x 2
##    date       steps_per_day
##    <fct>              <int>
##  1 2012-10-01             0
##  2 2012-10-02           126
##  3 2012-10-03         11352
##  4 2012-10-04         12116
##  5 2012-10-05         13294
##  6 2012-10-06         15420
##  7 2012-10-07         11015
##  8 2012-10-08             0
##  9 2012-10-09         12811
## 10 2012-10-10          9900
## # ... with 51 more rows
```
…
```r
act %>% filter(!is.na(steps)) %>% dplyr::group_by(date) %>% dplyr::summarise(mean_steps = mean(steps, na.rm = TRUE), median_steps = median(steps, na.rm =TRUE))
```

```
## # A tibble: 53 x 3
##    date       mean_steps median_steps
##    <fct>           <dbl>        <dbl>
##  1 2012-10-02      0.438            0
##  2 2012-10-03     39.4              0
##  3 2012-10-04     42.1              0
##  4 2012-10-05     46.2              0
##  5 2012-10-06     53.5              0
##  6 2012-10-07     38.2              0
##  7 2012-10-09     44.5              0
##  8 2012-10-10     34.4              0
##  9 2012-10-11     35.8              0
## 10 2012-10-12     60.4              0
## # ... with 43 more rows
```
…
```r
act_imputed %>% dplyr::group_by(date) %>% dplyr::summarise(avg = mean(impute, na.rm = TRUE), median = median(impute, na.rm = TRUE))
```

```
## # A tibble: 61 x 3
##    date          avg median
##    <fct>       <dbl>  <dbl>
##  1 2012-10-01 37.4     37.4
##  2 2012-10-02  0.438    0  
##  3 2012-10-03 39.4      0  
##  4 2012-10-04 42.1      0  
##  5 2012-10-05 46.2      0  
##  6 2012-10-06 53.5      0  
##  7 2012-10-07 38.2      0  
##  8 2012-10-08 37.4     37.4
##  9 2012-10-09 44.5      0  
## 10 2012-10-10 34.4      0  
## # ... with 51 more rows
```
…
